[0, [0.0, 0.0, 0.0, 1.0, 0.0]]
[1, [0.0, 0.0, 0.0, 1.0, 0.0]]
[2, [0.0, 0.0, 0.0, 1.0, 0.0]]
[3, [0.0, 0.0, 0.0, 1.0, 0.0]]
[4, [0.0, 0.0, 0.0, 1.0, 0.0]]
[5, [0.0, 0.0, 0.0, 1.0, 0.0]]
[6, [0.0, 0.0, 0.0, 1.0, 0.0]]
[7, [0.0, 0.0, 0.0, 1.0, 0.0]]
[8, [0.7792526867045776, 0.0, 0.4814793338719379, 0.2892270158423716, 0.27801193252241735]]
[9, [0.7570160436595156, 0.0, 0.1932935124312526, 0.49173164713267475, 0.3844012420665033]]
[10, [0.6738433819192209, 0.0, 0.28240184856762257, 0.2874470752163996, 0.6193209761656666]]
[11, [0.026444286465850907, 0.0, 0.29106147884030587, 0.6898538782639552, 0.6623334068977544]]
[12, [0.36967219614539526, 0.0, 0.25804315537370875, 0.12186009623449565, 0.8842546659800784]]
[13, [0.5495606055583951, 0.0, 0.6032760484281319, 0.2609836079348165, 0.5156827577111286]]
[14, [0.6253924912935165, 0.0, 0.6245466066124917, 0.4637544854324417, 0.061298819269226944]]
[15, [0.061161224610722556, 0.0, 0.5612950634693776, 0.5272497679556422, 0.6349919987840363]]
[16, [0.0, 0.0, 0.0, 0.0, 1.0]]
[17, [0.0, 0.0, 0.0, 0.0, 1.0]]
[18, [0.0, 0.0, 0.0, 0.0, 1.0]]
[19, [0.0, 0.0, 0.0, 0.0, 1.0]]
[20, [0.0, 0.0, 0.0, 0.0, 1.0]]
[21, [0.0, 0.0, 0.0, 0.0, 1.0]]
[22, [0.0, 0.0, 0.0, 0.0, 1.0]]
[23, [0.0, 0.0, 0.0, 0.0, 1.0]]
[24, [0.4884106807913145, 0.1029984303407009, 0.8665138950047577, 0.0, 0.0]]
[25, [0.14197713042039925, 0.13159284115639763, 0.9810840018030953, 0.0, 0.0]]
[26, [0.15736174577973325, 0.4198321367667223, 0.8938558373155274, 0.0, 0.0]]
[27, [0.16904932033446518, 0.5618543269573483, 0.8097790084793262, 0.0, 0.0]]
[28, [0.4774078428096816, 0.7778248385613082, 0.40874230529868216, 0.0, 0.0]]
[29, [0.8978207949515838, 0.33573219759272277, 0.28495914032026937, 0.0, 0.0]]
[30, [0.04076368989562081, 0.056377289630221844, 0.9975770259985159, 0.0, 0.0]]
[31, [0.869299633996917, 0.21106578027669728, 0.44695568318236545, 0.0, 0.0]]
[32, [0.0, 0.6862901283777988, 0.0, 0.7060909034842022, 0.17447491426576897]]
[33, [0.0, 0.7635245603336452, 0.0, 0.44426841742542134, 0.46867453424058103]]
[34, [0.0, 0.602036294917678, 0.0, 0.4053339437425609, 0.6879365476930973]]
[35, [0.0, 0.6222995875584371, 0.0, 0.5729058328763244, 0.5334061585517026]]
[36, [0.0, 0.17004649418143356, 0.0, 0.7171351371686926, 0.6758708344459348]]
[37, [0.0, 0.17255292116250495, 0.0, 0.9095558775916309, 0.3780655960766654]]
[38, [0.0, 0.7379641789184312, 0.0, 0.5957685226566675, 0.31696803946886776]]
[39, [0.0, 0.6487388330623947, 0.0, 0.6953844917245475, 0.3091574601167423]]
